module CarrierMicroservice

go 1.22

require (
	entgo.io/ent v0.13.1
	github.com/go-sql-driver/mysql v1.8.1
	github.com/gofiber/fiber/v2 v2.52.4
	github.com/golang-jwt/jwt/v5 v5.2.1
	github.com/rs/zerolog v1.32.0
)

require (
	ariga.io/atlas v0.19.1-0.20240203083654-5948b60a8e43 // indirect
	filippo.io/edwards25519 v1.1.0 // indirect
	github.com/agext/levenshtein v1.2.1 // indirect
	github.com/andybalholm/brotli v1.1.0 // indirect
	github.com/apparentlymart/go-textseg/v13 v13.0.0 // indirect
	github.com/go-openapi/inflect v0.19.0 // indirect
	github.com/google/go-cmp v0.6.0 // indirect
	github.com/google/uuid v1.6.0 // indirect
	github.com/hashicorp/hcl/v2 v2.13.0 // indirect
	github.com/klauspost/compress v1.17.8 // indirect
	github.com/mattn/go-colorable v0.1.13 // indirect
	github.com/mattn/go-isatty v0.0.20 // indirect
	github.com/mattn/go-runewidth v0.0.15 // indirect
	github.com/mitchellh/go-wordwrap v0.0.0-20150314170334-ad45545899c7 // indirect
	github.com/rivo/uniseg v0.4.7 // indirect
	github.com/valyala/bytebufferpool v1.0.0 // indirect
	github.com/valyala/fasthttp v1.52.0 // indirect
	github.com/valyala/tcplisten v1.0.0 // indirect
	github.com/zclconf/go-cty v1.8.0 // indirect
	golang.org/x/mod v0.15.0 // indirect
	golang.org/x/sys v0.20.0 // indirect
	golang.org/x/text v0.14.0 // indirect
)

